mc20_13TeV.700320.Sh_2211_Zee_maxHTpTV2_BFilter.deriv.DAOD_PHYSLITE.e8351_s3681_r13144_p5855
mc20_13TeV.700320.Sh_2211_Zee_maxHTpTV2_BFilter.deriv.DAOD_PHYSLITE.e8351_s3681_r13145_p5855
mc20_13TeV.700320.Sh_2211_Zee_maxHTpTV2_BFilter.deriv.DAOD_PHYSLITE.e8351_s3681_r13167_p5855

mc20_13TeV.700321.Sh_2211_Zee_maxHTpTV2_CFilterBVeto.deriv.DAOD_PHYSLITE.e8351_s3681_r13144_p5855
mc20_13TeV.700321.Sh_2211_Zee_maxHTpTV2_CFilterBVeto.deriv.DAOD_PHYSLITE.e8351_s3681_r13145_p5855
mc20_13TeV.700321.Sh_2211_Zee_maxHTpTV2_CFilterBVeto.deriv.DAOD_PHYSLITE.e8351_s3681_r13167_p5855

mc20_13TeV.700322.Sh_2211_Zee_maxHTpTV2_CVetoBVeto.deriv.DAOD_PHYSLITE.e8351_s3681_r13144_p5855
mc20_13TeV.700322.Sh_2211_Zee_maxHTpTV2_CVetoBVeto.deriv.DAOD_PHYSLITE.e8351_s3681_r13145_p5855
mc20_13TeV.700322.Sh_2211_Zee_maxHTpTV2_CVetoBVeto.deriv.DAOD_PHYSLITE.e8351_s3681_r13167_p5855

mc20_13TeV.700323.Sh_2211_Zmumu_maxHTpTV2_BFilter.deriv.DAOD_PHYSLITE.e8351_s3681_r13144_p5855
mc20_13TeV.700323.Sh_2211_Zmumu_maxHTpTV2_BFilter.deriv.DAOD_PHYSLITE.e8351_s3681_r13145_p5855
mc20_13TeV.700323.Sh_2211_Zmumu_maxHTpTV2_BFilter.deriv.DAOD_PHYSLITE.e8351_s3681_r13167_p5855

mc20_13TeV.700324.Sh_2211_Zmumu_maxHTpTV2_CFilterBVeto.deriv.DAOD_PHYSLITE.e8351_s3681_r13144_p5855
mc20_13TeV.700324.Sh_2211_Zmumu_maxHTpTV2_CFilterBVeto.deriv.DAOD_PHYSLITE.e8351_s3681_r13145_p5855
mc20_13TeV.700324.Sh_2211_Zmumu_maxHTpTV2_CFilterBVeto.deriv.DAOD_PHYSLITE.e8351_s3681_r13167_p5855

mc20_13TeV.700325.Sh_2211_Zmumu_maxHTpTV2_CVetoBVeto.deriv.DAOD_PHYSLITE.e8351_s3681_r13144_p5855
mc20_13TeV.700325.Sh_2211_Zmumu_maxHTpTV2_CVetoBVeto.deriv.DAOD_PHYSLITE.e8351_s3681_r13145_p5855
mc20_13TeV.700325.Sh_2211_Zmumu_maxHTpTV2_CVetoBVeto.deriv.DAOD_PHYSLITE.e8351_s3681_r13167_p5855

mc20_13TeV.700326.Sh_2211_Ztautau_LL_maxHTpTV2_BFilter.deriv.DAOD_PHYSLITE.e8351_s3681_r13144_p5855
mc20_13TeV.700326.Sh_2211_Ztautau_LL_maxHTpTV2_BFilter.deriv.DAOD_PHYSLITE.e8351_s3681_r13145_p5855
mc20_13TeV.700326.Sh_2211_Ztautau_LL_maxHTpTV2_BFilter.deriv.DAOD_PHYSLITE.e8351_s3681_r13167_p5855

mc20_13TeV.700327.Sh_2211_Ztautau_LL_maxHTpTV2_CFilterBVeto.deriv.DAOD_PHYSLITE.e8351_s3681_r13144_p5855
mc20_13TeV.700327.Sh_2211_Ztautau_LL_maxHTpTV2_CFilterBVeto.deriv.DAOD_PHYSLITE.e8351_s3681_r13145_p5855
mc20_13TeV.700327.Sh_2211_Ztautau_LL_maxHTpTV2_CFilterBVeto.deriv.DAOD_PHYSLITE.e8351_s3681_r13167_p5855

mc20_13TeV.700328.Sh_2211_Ztautau_LL_maxHTpTV2_CVetoBVeto.deriv.DAOD_PHYSLITE.e8351_s3681_r13144_p5855
mc20_13TeV.700328.Sh_2211_Ztautau_LL_maxHTpTV2_CVetoBVeto.deriv.DAOD_PHYSLITE.e8351_s3681_r13145_p5855
mc20_13TeV.700328.Sh_2211_Ztautau_LL_maxHTpTV2_CVetoBVeto.deriv.DAOD_PHYSLITE.e8351_s3681_r13167_p5855

mc20_13TeV.700329.Sh_2211_Ztautau_LH_maxHTpTV2_BFilter.deriv.DAOD_PHYSLITE.e8351_s3681_r13144_p5855
mc20_13TeV.700329.Sh_2211_Ztautau_LH_maxHTpTV2_BFilter.deriv.DAOD_PHYSLITE.e8351_s3681_r13145_p5855
mc20_13TeV.700329.Sh_2211_Ztautau_LH_maxHTpTV2_BFilter.deriv.DAOD_PHYSLITE.e8351_s3681_r13167_p5855

mc20_13TeV.700330.Sh_2211_Ztautau_LH_maxHTpTV2_CFilterBVeto.deriv.DAOD_PHYSLITE.e8351_s3681_r13144_p5855
mc20_13TeV.700330.Sh_2211_Ztautau_LH_maxHTpTV2_CFilterBVeto.deriv.DAOD_PHYSLITE.e8351_s3681_r13145_p5855
mc20_13TeV.700330.Sh_2211_Ztautau_LH_maxHTpTV2_CFilterBVeto.deriv.DAOD_PHYSLITE.e8351_s3681_r13167_p5855

mc20_13TeV.700331.Sh_2211_Ztautau_LH_maxHTpTV2_CVetoBVeto.deriv.DAOD_PHYSLITE.e8351_s3681_r13144_p5855
mc20_13TeV.700331.Sh_2211_Ztautau_LH_maxHTpTV2_CVetoBVeto.deriv.DAOD_PHYSLITE.e8351_s3681_r13145_p5855
mc20_13TeV.700331.Sh_2211_Ztautau_LH_maxHTpTV2_CVetoBVeto.deriv.DAOD_PHYSLITE.e8351_s3681_r13167_p5855

mc20_13TeV.700332.Sh_2211_Ztautau_HH_maxHTpTV2_BFilter.deriv.DAOD_PHYSLITE.e8351_s3681_r13144_p5855
mc20_13TeV.700332.Sh_2211_Ztautau_HH_maxHTpTV2_BFilter.deriv.DAOD_PHYSLITE.e8351_s3681_r13145_p5855
mc20_13TeV.700332.Sh_2211_Ztautau_HH_maxHTpTV2_BFilter.deriv.DAOD_PHYSLITE.e8351_s3681_r13167_p5855

mc20_13TeV.700334.Sh_2211_Ztautau_HH_maxHTpTV2_CVetoBVeto.deriv.DAOD_PHYSLITE.e8351_s3681_r13144_p5855
mc20_13TeV.700334.Sh_2211_Ztautau_HH_maxHTpTV2_CVetoBVeto.deriv.DAOD_PHYSLITE.e8351_s3681_r13145_p5855
mc20_13TeV.700334.Sh_2211_Ztautau_HH_maxHTpTV2_CVetoBVeto.deriv.DAOD_PHYSLITE.e8351_s3681_r13167_p5855

mc20_13TeV.700335.Sh_2211_Znunu_pTV2_BFilter.deriv.DAOD_PHYSLITE.e8351_s3681_r13144_p5855
mc20_13TeV.700335.Sh_2211_Znunu_pTV2_BFilter.deriv.DAOD_PHYSLITE.e8351_s3681_r13145_p5855
mc20_13TeV.700335.Sh_2211_Znunu_pTV2_BFilter.deriv.DAOD_PHYSLITE.e8351_s3681_r13167_p5855

mc20_13TeV.700336.Sh_2211_Znunu_pTV2_CFilterBVeto.deriv.DAOD_PHYSLITE.e8351_s3681_r13144_p5855
mc20_13TeV.700336.Sh_2211_Znunu_pTV2_CFilterBVeto.deriv.DAOD_PHYSLITE.e8351_s3681_r13145_p5855
mc20_13TeV.700336.Sh_2211_Znunu_pTV2_CFilterBVeto.deriv.DAOD_PHYSLITE.e8351_s3681_r13167_p5855

mc20_13TeV.700337.Sh_2211_Znunu_pTV2_CVetoBVeto.deriv.DAOD_PHYSLITE.e8351_s3681_r13144_p5855
mc20_13TeV.700337.Sh_2211_Znunu_pTV2_CVetoBVeto.deriv.DAOD_PHYSLITE.e8351_s3681_r13145_p5855
mc20_13TeV.700337.Sh_2211_Znunu_pTV2_CVetoBVeto.deriv.DAOD_PHYSLITE.e8351_s3681_r13167_p5855

mc20_13TeV.700338.Sh_2211_Wenu_maxHTpTV2_BFilter.deriv.DAOD_PHYSLITE.e8351_s3681_r13144_p5855
mc20_13TeV.700338.Sh_2211_Wenu_maxHTpTV2_BFilter.deriv.DAOD_PHYSLITE.e8351_s3681_r13145_p5855
mc20_13TeV.700338.Sh_2211_Wenu_maxHTpTV2_BFilter.deriv.DAOD_PHYSLITE.e8351_s3681_r13167_p5855

mc20_13TeV.700339.Sh_2211_Wenu_maxHTpTV2_CFilterBVeto.deriv.DAOD_PHYSLITE.e8351_s3681_r13144_p5855
mc20_13TeV.700339.Sh_2211_Wenu_maxHTpTV2_CFilterBVeto.deriv.DAOD_PHYSLITE.e8351_s3681_r13145_p5855
mc20_13TeV.700339.Sh_2211_Wenu_maxHTpTV2_CFilterBVeto.deriv.DAOD_PHYSLITE.e8351_s3681_r13167_p5855

mc20_13TeV.700340.Sh_2211_Wenu_maxHTpTV2_CVetoBVeto.deriv.DAOD_PHYSLITE.e8351_s3681_r13144_p5855
mc20_13TeV.700340.Sh_2211_Wenu_maxHTpTV2_CVetoBVeto.deriv.DAOD_PHYSLITE.e8351_s3681_r13145_p5855
mc20_13TeV.700340.Sh_2211_Wenu_maxHTpTV2_CVetoBVeto.deriv.DAOD_PHYSLITE.e8351_s3681_r13167_p5855

mc20_13TeV.700341.Sh_2211_Wmunu_maxHTpTV2_BFilter.deriv.DAOD_PHYSLITE.e8351_s3681_r13144_p5855
mc20_13TeV.700341.Sh_2211_Wmunu_maxHTpTV2_BFilter.deriv.DAOD_PHYSLITE.e8351_s3681_r13145_p5855
mc20_13TeV.700341.Sh_2211_Wmunu_maxHTpTV2_BFilter.deriv.DAOD_PHYSLITE.e8351_s3681_r13167_p5855

mc20_13TeV.700342.Sh_2211_Wmunu_maxHTpTV2_CFilterBVeto.deriv.DAOD_PHYSLITE.e8351_s3681_r13144_p5855
mc20_13TeV.700342.Sh_2211_Wmunu_maxHTpTV2_CFilterBVeto.deriv.DAOD_PHYSLITE.e8351_s3681_r13145_p5855
mc20_13TeV.700342.Sh_2211_Wmunu_maxHTpTV2_CFilterBVeto.deriv.DAOD_PHYSLITE.e8351_s3681_r13167_p5855

mc20_13TeV.700343.Sh_2211_Wmunu_maxHTpTV2_CVetoBVeto.deriv.DAOD_PHYSLITE.e8351_s3681_r13144_p5855
mc20_13TeV.700343.Sh_2211_Wmunu_maxHTpTV2_CVetoBVeto.deriv.DAOD_PHYSLITE.e8351_s3681_r13145_p5855
mc20_13TeV.700343.Sh_2211_Wmunu_maxHTpTV2_CVetoBVeto.deriv.DAOD_PHYSLITE.e8351_s3681_r13167_p5855

mc20_13TeV.700344.Sh_2211_Wtaunu_L_maxHTpTV2_BFilter.deriv.DAOD_PHYSLITE.e8351_s3681_r13144_p5855
mc20_13TeV.700344.Sh_2211_Wtaunu_L_maxHTpTV2_BFilter.deriv.DAOD_PHYSLITE.e8351_s3681_r13145_p5855
mc20_13TeV.700344.Sh_2211_Wtaunu_L_maxHTpTV2_BFilter.deriv.DAOD_PHYSLITE.e8351_s3681_r13167_p5855

mc20_13TeV.700345.Sh_2211_Wtaunu_L_maxHTpTV2_CFilterBVeto.deriv.DAOD_PHYSLITE.e8351_s3681_r13144_p5855
mc20_13TeV.700345.Sh_2211_Wtaunu_L_maxHTpTV2_CFilterBVeto.deriv.DAOD_PHYSLITE.e8351_s3681_r13145_p5855
mc20_13TeV.700345.Sh_2211_Wtaunu_L_maxHTpTV2_CFilterBVeto.deriv.DAOD_PHYSLITE.e8351_s3681_r13167_p5855

mc20_13TeV.700346.Sh_2211_Wtaunu_L_maxHTpTV2_CVetoBVeto.deriv.DAOD_PHYSLITE.e8351_s3681_r13144_p5855
mc20_13TeV.700346.Sh_2211_Wtaunu_L_maxHTpTV2_CVetoBVeto.deriv.DAOD_PHYSLITE.e8351_s3681_r13145_p5855
mc20_13TeV.700346.Sh_2211_Wtaunu_L_maxHTpTV2_CVetoBVeto.deriv.DAOD_PHYSLITE.e8351_s3681_r13167_p5855

mc20_13TeV.700347.Sh_2211_Wtaunu_H_maxHTpTV2_BFilter.deriv.DAOD_PHYSLITE.e8351_s3681_r13144_p5855
mc20_13TeV.700347.Sh_2211_Wtaunu_H_maxHTpTV2_BFilter.deriv.DAOD_PHYSLITE.e8351_s3681_r13145_p5855
mc20_13TeV.700347.Sh_2211_Wtaunu_H_maxHTpTV2_BFilter.deriv.DAOD_PHYSLITE.e8351_s3681_r13167_p5855

mc20_13TeV.700348.Sh_2211_Wtaunu_H_maxHTpTV2_CFilterBVeto.deriv.DAOD_PHYSLITE.e8351_s3681_r13144_p5855
mc20_13TeV.700348.Sh_2211_Wtaunu_H_maxHTpTV2_CFilterBVeto.deriv.DAOD_PHYSLITE.e8351_s3681_r13145_p5855
mc20_13TeV.700348.Sh_2211_Wtaunu_H_maxHTpTV2_CFilterBVeto.deriv.DAOD_PHYSLITE.e8351_s3681_r13167_p5855

mc20_13TeV.700349.Sh_2211_Wtaunu_H_maxHTpTV2_CVetoBVeto.deriv.DAOD_PHYSLITE.e8351_s3681_r13144_p5855
mc20_13TeV.700349.Sh_2211_Wtaunu_H_maxHTpTV2_CVetoBVeto.deriv.DAOD_PHYSLITE.e8351_s3681_r13145_p5855
mc20_13TeV.700349.Sh_2211_Wtaunu_H_maxHTpTV2_CVetoBVeto.deriv.DAOD_PHYSLITE.e8351_s3681_r13167_p5855
