mc20_13TeV:mc20_13TeV.410560.MadGraphPythia8EvtGen_A14_tZ_4fl_tchan_noAllHad.deriv.DAOD_PHYSLITE.e5803_s3681_r13144_r13146_p5855
mc20_13TeV:mc20_13TeV.410560.MadGraphPythia8EvtGen_A14_tZ_4fl_tchan_noAllHad.deriv.DAOD_PHYSLITE.e5803_s3681_r13145_r13146_p5855
mc20_13TeV:mc20_13TeV.410560.MadGraphPythia8EvtGen_A14_tZ_4fl_tchan_noAllHad.deriv.DAOD_PHYSLITE.e5803_s3681_r13167_r13146_p5855
